tidy xgboost • autostats
…
get shapley values

tidy_shap has similar syntax to
tidy_predict and can be used to get shapley values from
xgboost models on a validation set.

xgb_base %>% 
  tidy_shap(newdata = iris_val, form = petal_form) -> shap_list

shap_list$shap_tbl
#> # A tibble: 38 × 5
#>    Sepal.Length Sepal.Width Petal.Width Species_versicolor Species_virginica
#>           <dbl>       <dbl>       <dbl>              <dbl>             <dbl>
#>  1       -0.236     -0.0700       -1.97             0.0970          0.000452
#>  2       -0.284     -0.0764       -2.02             0.0954          0.000395
#>  3       -0.118     -0.0969       -2.04             0.0970          0.00137 
#>  4       -0.244     -0.0778       -1.99             0.0970          0.000452
#>  5       -0.143     -0.0595       -2.08             0.0970          0.000452
#>  6       -0.281     -0.0627       -2.01             0.0970          0.000845
#>  7       -0.228     -0.0395       -1.90             0.0970          0.000856
#>  8       -0.260     -0.145        -2.04             0.0954          0.000351
#>  9       -0.223     -0.0909       -1.99             0.0954          0.000395
#> 10       -0.281      0.272        -1.86             0.0960         -0.00104 
#> # … with 28 more rows
…
